﻿
   About folder daftari/phplibs/simplehtmldom/

   *** simplehtmldom_1_8_1 ***

   file 20110816°2311 simple_html_dom.php
   encoding : UTF-8-without-BOM
   reference : For the complete extraction see
      https://downtown.trilo.de/svn/daftarimat/trunk/eval/simplehtmldom_1_8_1

   ————————————————————————————————————————————————————————————
   Project log :

   download 20190311°0911 simplehtmldom_1_8_1
   • https://sourceforge.net/projects/simplehtmldom/files/simplehtmldom/1.8.1/
   • See https://downtown.trilo.de/svn/dow20190106/trunk/20190311o0911.simplehtmldom

   download 20161011°1431 simplehtmldom r210
   Not used


   ———————————————————————
   [file 20161008°0813] ◦Ω
