<?xml version="1.0" encoding="UTF-8" standalone="no"?>
<!-- Created with Inkscape (http://www.inkscape.org/) -->
<svg
    xmlns:inkscape="http://www.inkscape.org/namespaces/inkscape"
    xmlns:rdf="http://www.w3.org/1999/02/22-rdf-syntax-ns#"
    xmlns="http://www.w3.org/2000/svg"
    xmlns:cc="http://creativecommons.org/ns#"
    xmlns:dc="http://purl.org/dc/elements/1.1/"
    xmlns:sodipodi="http://sodipodi.sourceforge.net/DTD/sodipodi-0.dtd"
    xmlns:svg="http://www.w3.org/2000/svg"
    xmlns:ns1="http://sozi.baierouge.fr"
    xmlns:xlink="http://www.w3.org/1999/xlink"
    id="svg9259"
    sodipodi:docname="hen with three chicken.svg"
    viewBox="0 0 640 480"
    version="1.1"
    inkscape:version="0.48.0 r9654"
  >
  <sodipodi:namedview
      id="base"
      bordercolor="#666666"
      inkscape:pageshadow="2"
      inkscape:window-y="29"
      fit-margin-left="0"
      pagecolor="#ffffff"
      fit-margin-top="0"
      inkscape:window-maximized="0"
      inkscape:zoom="0.2267023"
      inkscape:window-x="22"
      inkscape:window-height="666"
      showgrid="false"
      borderopacity="1.0"
      inkscape:current-layer="layer1"
      inkscape:cx="281.369"
      inkscape:cy="212.77273"
      fit-margin-right="0"
      fit-margin-bottom="0"
      inkscape:window-width="780"
      inkscape:pageopacity="0.0"
      inkscape:document-units="px"
  />
  <g
      id="layer1"
      inkscape:label="Layer 1"
      inkscape:groupmode="layer"
      transform="translate(-58.974 16.979)"
    >
    <g
        id="g8779"
        style="stroke-width:2.876"
        transform="matrix(.69541 0 0 .69541 1073 -740.46)"
      >
      <path
          id="path8006"
          style="color:#000000;stroke:#000000;stroke-width:2.876;fill:#ffcc00"
          inkscape:connector-curvature="0"
          d="m-948.34 1561.8c-0.21367 32.962 7.7659 39.788 9.7697 58.605 0 0-39.89-15.525-52.692-9.9413-12.802 5.5839-53.622 23.498-7.1092 14.698 14.592-2.7606 30.691-1.4329 30.691-1.4329s-56.296 19.132-49.031 30.687c7.2656 11.555 49.169-18.073 49.169-18.073s-22.518 36.117-13.948 38.885c8.5693 2.7681 12.915-26.521 33.257-32.482 20.341-5.9619 48.024 35.013 39.358 15.954-8.7981-19.35-3.065-23.31-16.069-56.061-5.6274-14.173-8.6369-26.779-9.9541-37.763"
      />
      <path
          id="path7994"
          style="color:#000000;stroke:#000000;stroke-width:2.876;fill:#ffcc00"
          inkscape:connector-curvature="0"
          d="m-861.98 1564.9 1.0438 4.9675c-1.8614 40.916 7.3525 47.214 9.5273 67.637 0 0-39.89-15.525-52.692-9.9412s-53.622 23.498-7.1092 14.698c14.592-2.7606 30.691-1.4329 30.691-1.4329s-56.296 19.132-49.031 30.687c7.2656 11.555 49.169-18.073 49.169-18.073s-22.518 36.117-13.948 38.886c8.5693 2.7682 12.915-26.521 33.257-32.482 20.341-5.9619 48.024 35.013 39.358 15.954-8.7981-19.35-3.065-23.31-16.069-56.061-9.5307-24.004-11.553-43.512-10.561-58.263"
      />
      <path
          id="path7990"
          d="m-1139.1 1259.2-53.297 41.453 76.984 13.324z"
          style="color:#000000;stroke:#000000;stroke-width:2.876;fill:#ffcc00"
          inkscape:connector-curvature="0"
      />
      <path
          id="path7983"
          d="m-1033 1108.6c-13.283-0.6672-40.798 50.829-46.812 54.438-7.4024 4.4414-2.9843-32.59-32.594-37.031-29.609-4.4414-8.875 39.969-8.875 39.969s-23.676-23.684-48.844-4.4375c-20.853 15.947 15.933 45.949 34.312 63.406 0.8556-1.3942 1.7096-2.7908 2.6562-4.125 1.3966-1.9683 2.885-3.8603 4.4688-5.6875s3.242-3.5762 5-5.25c1.758-1.6737 3.6121-3.2734 5.5312-4.7812 1.9192-1.5078 3.9015-2.9204 5.9688-4.25s4.2038-2.5798 6.4062-3.7188c2.2025-1.1389 4.488-2.1891 6.8125-3.125 2.3246-0.9359 4.6914-1.7482 7.125-2.4687 2.4337-0.7205 4.939-1.351 7.4688-1.8438 2.5298-0.4927 5.1059-0.8413 7.7187-1.0937 2.6129-0.2525 5.2546-0.4063 7.9375-0.4063s5.3247 0.1538 7.9375 0.4063c2.6129 0.2525 5.189 0.601 7.7188 1.0937 2.5298 0.4928 5.0038 1.1233 7.4375 1.8438s4.8317 1.5328 7.1562 2.4687c2.3246 0.9359 4.5788 1.9861 6.7813 3.125 2.2024 1.1389 4.3389 2.3892 6.4062 3.7188 2.0674 1.3296 4.0809 2.7422 6 4.25 1.9192 1.5078 3.742 3.1075 5.5 4.7812 1.4642 1.394 2.8435 2.8739 4.1875 4.375 17.279-20.379 36.812-48.979 33.406-71.969-5.4489-36.78-52.906 18.374-60.75 27.75 5.1354-6.7315 14.848-23.679 10.406-51.438-1.1103-6.9397-3.4033-9.846-6.4687-10z"
          style="color:#000000;stroke:#000000;stroke-width:2.876;fill:#ff6600"
          inkscape:connector-curvature="0"
      />
      <path
          id="path7988"
          d="m-1050.6 1448.7c0 16.285-4.4414 26.648 16.285 59.219 21.475 33.746 94.059 65.003 142.13 60.699 43.668-3.9099 65.141-8.8828 102.15-41.453 33.045-29.079 60.699-97.711 66.621-96.231 5.9219 1.4804 54.777 34.051 72.543 2.9609s-32.57-35.531-39.973-35.531c-7.4024 0 65.658 6.5829 54.777-38.492-17.328-69.435-93.821 63.236-79.945 23.688 5.9219-22.947 68.39-120.64 38.492-122.88-29.564-2.2101-56.258 90.309-56.258 90.309s10.329-106.1-32.57-97.711c-57.13 11.166-5.9219 111.04-5.9219 111.04s-65.141 7.4024-97.711-11.844-74.024-51.816-108.07-38.492c-34.051 13.324-62.356 18.244-66.621 37.012-7.4024 32.57-5.9219 97.711-5.9219 97.711z"
          sodipodi:nodetypes="cssssssccscscsssc"
          style="color:#000000;stroke:#000000;stroke-width:2.876;fill:#e9c6af"
          inkscape:connector-curvature="0"
      />
      <path
          id="path7963"
          d="m-1065.8 1186.7c-42.926 0-77.719 33.118-77.719 74 0 33.736 23.688 62.205 56.094 71.125-5.9119 23.328-22.292 101.8 0.1563 99.156 25.168-2.9609 26.656-50.344 26.656-50.344s36.992 87.328 45.875 34.031c8.8828-53.297 0-66.594 0-66.594s78.481 63.66 53.312 23.688c-25.168-39.973-37-51.844-37-51.844s115.47 72.559 87.344 17.781c-19.348-37.677-58.311-50.141-80.75-54.25 2.4251-7.1637 3.75-14.818 3.75-22.75 0-40.882-34.793-74-77.719-74z"
          style="opacity:.99024;fill-rule:evenodd;color:#000000;stroke:#090907;stroke-width:2.876;fill:#deaa87"
          inkscape:connector-curvature="0"
      />
      <path
          id="path7992"
          d="m-1137.6 1309.6s-29.609 26.648-25.168 42.934c4.4414 16.285 28.129-11.844 28.129-11.844s-10.363 44.414 5.9218 32.57 8.8829-60.699 8.8829-60.699z"
          style="color:#000000;stroke:#000000;stroke-width:2.876;fill:#ff6600"
          inkscape:connector-curvature="0"
      />
      <path
          id="path8000"
          d="m-898.98 1384.7s130.28-13.324 109.55 10.363c-20.727 23.688-79.945 29.609-79.945 29.609s72.543 5.9219 41.453 25.168-77.725 1.4804-77.725 1.4804 80.686 11.844 49.596 39.973-94.75-22.207-94.75-22.207 17.766 38.492-5.9219 31.09c-23.688-7.4024-41.453-62.18-41.453-62.18"
          sodipodi:nodetypes="cscscscsc"
          style="color:#000000;stroke:#000000;stroke-width:2.876;fill:none"
          inkscape:connector-curvature="0"
      />
      <path
          id="path8002"
          sodipodi:rx="30.349661"
          sodipodi:ry="26.648483"
          style="opacity:.99024;fill-rule:evenodd;color:#000000;stroke:#090907;stroke-width:2.876;fill:#ffffff"
          sodipodi:type="arc"
          d="m325.7 458.69c0 14.718-13.588 26.648-30.35 26.648s-30.35-11.931-30.35-26.648c0-14.718 13.588-26.648 30.35-26.648s30.35 11.931 30.35 26.648z"
          transform="translate(-1373 799.05)"
          sodipodi:cy="458.69321"
          sodipodi:cx="295.35403"
      />
      <path
          id="path8004"
          sodipodi:rx="13.324242"
          sodipodi:ry="17.025419"
          style="opacity:.99024;fill-rule:evenodd;color:#000000;fill:#000000"
          sodipodi:type="arc"
          d="m84.387 478.68c0 9.4029-5.9655 17.025-13.324 17.025-7.3588 0-13.324-7.6225-13.324-17.025 0-9.4029 5.9655-17.025 13.324-17.025 7.3588 0 13.324 7.6225 13.324 17.025z"
          transform="matrix(.83333 0 0 .73913 -1151.6 907.64)"
          sodipodi:cy="478.67957"
          sodipodi:cx="71.062622"
      />
      <path
          id="path8441"
          sodipodi:rx="30.349661"
          sodipodi:ry="26.648483"
          style="opacity:.99024;fill-rule:evenodd;color:#000000;stroke:#090907;stroke-width:2.876;fill:#ffffff"
          sodipodi:type="arc"
          d="m325.7 458.69c0 14.718-13.588 26.648-30.35 26.648s-30.35-11.931-30.35-26.648c0-14.718 13.588-26.648 30.35-26.648s30.35 11.931 30.35 26.648z"
          transform="translate(-1373 799.05)"
          sodipodi:cy="458.69321"
          sodipodi:cx="295.35403"
      />
      <path
          id="path8443"
          sodipodi:rx="13.324242"
          sodipodi:ry="17.025419"
          style="opacity:.99024;fill-rule:evenodd;color:#000000;fill:#000000"
          sodipodi:type="arc"
          d="m84.387 478.68c0 9.4029-5.9655 17.025-13.324 17.025-7.3588 0-13.324-7.6225-13.324-17.025 0-9.4029 5.9655-17.025 13.324-17.025 7.3588 0 13.324 7.6225 13.324 17.025z"
          transform="matrix(.83333 0 0 .73913 -1151.6 907.64)"
          sodipodi:cy="478.67957"
          sodipodi:cx="71.062622"
      />
    </g
    >
    <g
        id="g9173"
        style="stroke-width:5.035"
        transform="matrix(.39722 0 0 .39722 5.7859 -199.08)"
      >
      <path
          id="path9130"
          d="m356.94 1142.3c-49.183 0-89.064 43.701-89.064 97.568 0 10.302 1.5044 20.218 4.2071 29.539-23.095 22.243-38.799 55.256-41.847 92.734l-79.397-6.8924c4.4102 6.8542 15.874 14.237 24.748 33.094 18.178 38.627 63.997 64.34 93.363 90.163 18.614 18.291 45.186 32.761 73.131 32.761 62.064 0 112.38-60.755 112.38-135.7 0-30.934-8.5728-59.482-23.005-82.306 9.1876-15.344 14.546-33.674 14.546-53.394 0-53.867-39.882-97.568-89.064-97.568z"
          sodipodi:nodetypes="sscccscsscss"
          style="opacity:.99024;fill-rule:evenodd;color:#000000;stroke:#090907;stroke-width:5.035;fill:#ffff00"
          inkscape:connector-curvature="0"
      />
      <path
          id="path9137"
          d="m411 1481.5c-2.8271 21.203-8.8347 33.925-11.662 55.128 26.857 0 54.775-6.3609 80.572 0-8.1279 21.203-39.579 16.963-59.369 25.444 16.695-7.8347 66.622 33.422 33.607 35.214-40.159-26.909-50.459-40.261-97.217-40.514 1.4135-15.549 34.632-13.075 25.444-55.128 18.023-12.015 12.722-7.0678 28.624-20.143z"
          sodipodi:nodetypes="cccccccc"
          style="color:#000000;stroke:#000000;stroke-width:5.035;fill:#ffcc00"
          inkscape:connector-curvature="0"
      />
      <path
          id="path9143"
          sodipodi:nodetypes="cccccccc"
          style="color:#000000;stroke:#000000;stroke-width:5.035;fill:#ffcc00"
          inkscape:connector-curvature="0"
          d="m309.68 1505.7c-13.429 18.023-29.243 15.372-37.371 35.515 26.857 0 58.485-16.963 84.283-10.602-8.1279 21.203-24.207 16.963-43.997 25.444 17.731 5.6231 28.409 8.6002 44.804 17.601-14.315 34.254-73.349-15.431-108.41-16.541 1.4136-15.549 20.32-27.652 28.624-68.91 12.722 7.5977-3.8231-2.3532 32.07 17.493z"
      />
      <path
          id="path9145"
          d="m315.82 1234.4c-24.25-2.5116-26.591-18.811-32.87-40.835-1.6419-6.1122-2.8504-12.338-3.6896-18.609 22.631-8.4276 54.925-3.953 67.099 11.477 7.5569 29.586-2.5151 45.509-30.54 47.967z"
          sodipodi:nodetypes="ccccc"
          style="color:#000000;stroke:#000000;stroke-width:5.035;fill:#ffcc00"
          inkscape:connector-curvature="0"
      />
      <path
          id="path9153"
          sodipodi:rx="8.1425924"
          sodipodi:ry="14.064477"
          style="opacity:.99024;fill-rule:evenodd;color:#000000;stroke:#090907;stroke-width:2.5752;fill:#ffffff"
          sodipodi:type="arc"
          d="m137.68 689.65c0 7.7676-3.6456 14.064-8.1426 14.064s-8.1426-6.2969-8.1426-14.064c0-7.7676 3.6456-14.064 8.1426-14.064s8.1426 6.2969 8.1426 14.064z"
          transform="matrix(2.6691 0 0 1.4322 31.853 190.62)"
          sodipodi:cy="689.64673"
          sodipodi:cx="129.54124"
      />
      <path
          id="path9155"
          sodipodi:rx="6.6621208"
          sodipodi:ry="7.0322385"
          style="opacity:.99024;fill-rule:evenodd;color:#000000;fill:#000000"
          sodipodi:type="arc"
          d="m141.39 694.46c0 3.8838-2.9827 7.0322-6.6621 7.0322s-6.6621-3.1484-6.6621-7.0322 2.9827-7.0322 6.6621-7.0322 6.6621 3.1484 6.6621 7.0322z"
          transform="matrix(1.4322 0 0 1.4322 187.31 190.62)"
          sodipodi:cy="694.45825"
          sodipodi:cx="134.72289"
      />
      <path
          id="path9157"
          d="m268.44 1273.3s-79.982 100.17-88.744 123.71c-9.1265 24.528 14.569 45.14 14.569 45.14s48.177-15.319 52.33-41.337c4.9533-31.03 19.53 78.038 45.259 12.73s30.512-73.358 30.512-73.358"
          sodipodi:nodetypes="cscssc"
          style="color:#000000;stroke:#000000;stroke-width:5.035;fill:#ffff00"
          inkscape:connector-curvature="0"
      />
    </g
    >
    <g
        id="g9163"
        style="stroke-width:4.8772"
        transform="matrix(.38266 0 0 .43945 654.43 -236.51)"
      >
      <g
          id="g9110"
          style="stroke-width:5.7217"
          transform="matrix(.85241 0 0 .85241 -325.29 28.941)"
        >
        <path
            id="path9060"
            sodipodi:nodetypes="cscccsscsssc"
            style="opacity:.99024;fill-rule:evenodd;color:#000000;stroke:#090907;stroke-width:5.7217;fill:#ffff00"
            inkscape:connector-curvature="0"
            d="m345.47 1420.8c-61.285 0-110.97 48.746-110.97 108.88 0 0.7203 0.0171 1.4392 0.0312 2.1562-28.631 4.5472-57.488-23.786-84.5-30.539 0 0-76.749-14.032-124.91-55.367 0 0-10.401 52.996 29.312 163.31 37.687 104.69 92.127 71.187 171.69 54.438 48.928-10.301 66.154-25.343 72.188-35.406 14.308 6.5971 30.301 10.281 47.156 10.281 61.285 0 110.97-48.746 110.97-108.88 0-60.129-49.684-108.88-110.97-108.88z"
        />
        <path
            id="path9077"
            sodipodi:nodetypes="cccccccccccccc"
            style="color:#000000;stroke:#000000;stroke-width:5.7217;fill:#ffcc00"
            inkscape:connector-curvature="0"
            d="m162.08 1678.9c-12.371 3.5398-30.897-2.1357-39.808 4.9286-0.61993 15.493-10.823 35.966-2.2239 50.33 7.1506 11.624 8.9032 26.004 17.467 36.698 4.9554 10.278 25.122 13.593 20.346-2.29-5.414-11.217-10.755-22.968-20.043-31.672 7.9469 8.1727 19.191 27.59 32.042 16.636 5.7032-10.71-6.1614-19.813-14.614-24.174-11.484-6.9367 9.6703 4.4816 13.972 6.2694 10.584 5.0132 21.622 9.3875 33.249 11.207 10.487-6.8898-3.0648-19.264-10.671-22.308-16.505-7.9095-37.687-1.0775-52.285-13.585-7.7356-13.556 11.522-18.156 18.679-25.045 1.869-1.9398 3.317-4.3424 3.8915-6.996z"
        />
        <path
            id="path9082"
            sodipodi:nodetypes="cccccccccccccccc"
            style="color:#000000;stroke:#000000;stroke-width:5.7217;fill:#ffcc00"
            inkscape:connector-curvature="0"
            d="m229.59 1663.4c-7.3934 3.0584-20.528 3.7835-25.714 8.3046 2.8525 25.943 7.9207 51.887 10.776 77.83 4.771 9.3461 15.735 12.731 24.636 16.901 11.946 4.8136 24.639 8.5361 37.537 8.9803 10.282-4.6821-5.1535-12.862-9.614-16.466-10.07-6.2191-21.516-10.59-33.173-12.361 6.8584 2.9334 14.814 4.0475 22.248 5.5383 9.2108 1.0899 19.387 2.6099 28.032-1.5685 7.4361-3.503 6.057-14.328-0.98249-17.457-8.4971-4.9409-18.413-6.6624-28.055-7.764 16.878 1.3133 34.011 2.9512 50.83 0.4219 11.389-5.4978-5.9419-12.969-11.817-14.49-20.666-5.4044-42.337 0.2621-61.786 7.632-8.1995 5.2794-2.5263-9.6554-3.9278-14.311 0.33678-13.73 0.67353-27.461 1.0104-41.191z"
        />
        <path
            id="path9095"
            sodipodi:rx="38.492252"
            sodipodi:ry="41.453197"
            style="opacity:.99024;fill-rule:evenodd;color:#000000;stroke:#090907;stroke-width:5.7217;fill:#ffffff"
            sodipodi:type="arc"
            d="m438.22 1555.7c0 22.894-17.234 41.453-38.492 41.453-21.259 0-38.492-18.559-38.492-41.453s17.234-41.453 38.492-41.453c21.259 0 38.492 18.559 38.492 41.453z"
            sodipodi:cy="1555.7224"
            sodipodi:cx="399.72723"
        />
        <path
            id="path9097"
            sodipodi:rx="13.324242"
            sodipodi:ry="14.804713"
            style="opacity:.99024;fill-rule:evenodd;color:#000000;fill:#000000"
            sodipodi:type="arc"
            d="m414.53 1573.5c0 8.1765-5.9655 14.805-13.324 14.805-7.3588 0-13.324-6.6283-13.324-14.805 0-8.1764 5.9655-14.805 13.324-14.805 7.3588 0 13.324 6.6283 13.324 14.805z"
            sodipodi:cy="1573.488"
            sodipodi:cx="401.2077"
        />
        <path
            id="path9108"
            style="color:#000000;stroke:#000000;stroke-width:5.7217;fill:#ffcc00"
            inkscape:connector-curvature="0"
            d="m407.5 1620 95.875 18.625-51.438-78.375c-0.18082 0.6078-0.30872 1.2404-0.5 1.8438-1.0808 3.4091-2.3149 6.7436-3.7188 10-1.4039 3.2563-2.9792 6.4458-4.6875 9.5312s-3.537 6.0726-5.5312 8.9688c-1.9942 2.8961-4.1448 5.6864-6.4062 8.375-2.2615 2.6885-4.646 5.2871-7.1562 7.75-2.5102 2.4628-5.1347 4.7811-7.875 7-2.7403 2.2188-5.6107 4.3246-8.5625 6.2812z"
        />
      </g
      >
      <path
          id="path9161"
          sodipodi:nodetypes="cscssssc"
          d="m-153.1 1372.8s5.0546 43.727-68.969 55.57c-74.024 11.844-90.681-12.891-90.681-12.891s21.922-35.891 31.672-30.656c10.435 5.602-67.801-41.347-32.781-39.36 34.92 1.9817-5.9219-44.414 29.609-32.57 20.458 6.8192 65.021 18.317 95.598 33.063 22.53 10.865 35.551 26.843 35.551 26.843z"
          style="color:#000000;stroke:#000000;stroke-width:4.8772;fill:#ffff00"
          inkscape:connector-curvature="0"
      />
    </g
    >
    <g
        id="g9118"
        style="stroke-width:5.2191"
        transform="matrix(.38321 0 0 .38321 409.75 -149.24)"
      >
      <path
          id="path8470"
          d="m-418.71 1420.6c-4.7863 19.891-8.6008 40.106-9.6336 60.573-12.69 5.7393-26.014 11.181-36.346 20.767-4.2482 7.1873 6.6434 11.012 12.026 8.2082 9.0998-1.9435 16.527-7.8763 24.167-12.82 1.8659 4.2728 1.2825 9.2932 3.8617 13.341 2.8498 5.4561 8.232 9.982 14.373 10.97 7.3988-1.3826 4.7994-11.001 5.0443-16.459 2.4905-2.3011 6.2997 4.3788 9.3742 5.3328 7.9077 5.6038 16.147 11.474 25.549 14.075 7.5771-1.2502 3.7972-10.99 1.0148-15.252-6.7877-12.814-19.59-21.056-32.596-26.582-4.924-0.5025-2.8811-6.5228-3.2461-9.8608v-38.705c-4.5294-4.5296-9.0589-9.0589-13.588-13.588z"
          style="color:#000000;stroke:#000000;stroke-width:5.2191;fill:#ffcc00"
          inkscape:connector-curvature="0"
      />
      <path
          id="path8475"
          d="m-303.21 1426c-4.7845 19.885-8.6024 40.112-9.6335 60.573-11.818 5.3273-24.085 10.414-34.126 18.793-5.838 3.3491-3.2688 11.044 3.3703 10.708 9.7115 0.5439 18.317-5.149 26.085-10.287 2.3797-1.32 5.8836-5.8563 5.3478-0.559 0.90294 7.0566 3.4083 14.577 9.8555 18.453 3.1177 2.6271 9.6809 5.8569 11.85 0.513 1.6604-4.8764 0.52979-10.12 0.83987-15.176 10.086 7.4514 20.092 15.533 31.889 20.112 6.5085 3.6312 9.3778-4.0015 6.3327-8.8791-5.3931-15.8-20.245-25.854-34.976-32.097-3.4338-0.2433-3.537-2.6907-3.2461-5.4392v-43.126c-4.5295-4.5294-9.0589-9.0589-13.588-13.588z"
          style="color:#000000;stroke:#000000;stroke-width:5.2191;fill:#ffcc00"
          inkscape:connector-curvature="0"
      />
      <path
          id="path8576"
          d="m-388.12 1121.3c-45.449 0-82.336 41.657-82.336 93.034 0 10.538 1.6125 20.619 4.4691 30.063-19.145 23.524-30.538 53.153-30.538 85.383 0 76.437 64.194 138.4 143.41 138.4 79.217 0 143.41-61.963 143.41-138.4 0-60.867-40.712-112.55-97.3-131.09-6.5832-43.924-40.387-77.393-81.117-77.393z"
          style="opacity:.99024;fill-rule:evenodd;color:#000000;stroke:#090907;stroke-width:5.2191;fill:#ffff00"
          inkscape:connector-curvature="0"
      />
      <g
          id="g8460"
          style="stroke-width:3.2255"
          transform="matrix(1.6181 0 0 1.6181 -812.07 891.83)"
        >
        <path
            id="path8456"
            sodipodi:rx="30.349661"
            sodipodi:ry="26.648483"
            style="opacity:.99024;fill-rule:evenodd;color:#000000;stroke:#090907;stroke-width:4.8426;fill:#ffffff"
            sodipodi:type="arc"
            d="m325.7 458.69c0 14.718-13.588 26.648-30.35 26.648s-30.35-11.931-30.35-26.648c0-14.718 13.588-26.648 30.35-26.648s30.35 11.931 30.35 26.648z"
            transform="matrix(.66607 0 0 .66607 79.275 -119.59)"
            sodipodi:cy="458.69321"
            sodipodi:cx="295.35403"
        />
        <path
            id="path8458"
            sodipodi:rx="13.324242"
            sodipodi:ry="17.025419"
            style="opacity:.99024;fill-rule:evenodd;color:#000000;fill:#000000"
            sodipodi:type="arc"
            d="m84.387 478.68c0 9.4029-5.9655 17.025-13.324 17.025-7.3588 0-13.324-7.6225-13.324-17.025 0-9.4029 5.9655-17.025 13.324-17.025 7.3588 0 13.324 7.6225 13.324 17.025z"
            transform="matrix(.55506 0 0 .49231 226.7 -47.259)"
            sodipodi:cy="478.67957"
            sodipodi:cx="71.062622"
        />
      </g
      >
      <g
          id="g8464"
          style="stroke-width:3.2255"
          transform="matrix(1.6181 0 0 1.6181 -881.91 901.42)"
        >
        <path
            id="path8466"
            sodipodi:rx="30.349661"
            sodipodi:ry="26.648483"
            style="opacity:.99024;fill-rule:evenodd;color:#000000;stroke:#090907;stroke-width:4.8426;fill:#ffffff"
            sodipodi:type="arc"
            d="m325.7 458.69c0 14.718-13.588 26.648-30.35 26.648s-30.35-11.931-30.35-26.648c0-14.718 13.588-26.648 30.35-26.648s30.35 11.931 30.35 26.648z"
            transform="matrix(.66607 0 0 .66607 79.275 -119.59)"
            sodipodi:cy="458.69321"
            sodipodi:cx="295.35403"
        />
        <path
            id="path8468"
            sodipodi:rx="13.324242"
            sodipodi:ry="17.025419"
            style="opacity:.99024;fill-rule:evenodd;color:#000000;fill:#000000"
            sodipodi:type="arc"
            d="m84.387 478.68c0 9.4029-5.9655 17.025-13.324 17.025-7.3588 0-13.324-7.6225-13.324-17.025 0-9.4029 5.9655-17.025 13.324-17.025 7.3588 0 13.324 7.6225 13.324 17.025z"
            transform="matrix(.55506 0 0 .49231 226.7 -47.259)"
            sodipodi:cy="478.67957"
            sodipodi:cx="71.062622"
        />
      </g
      >
      <path
          id="path8477"
          sodipodi:nodetypes="ccscc"
          d="m-388.07 1244.8c-18.603 7.8718-23.919 28.339-23.919 28.339s34.549 33.062 34.549 26.765c0-6.2976 29.234-23.616 29.234-23.616-9.2648-14.714-22.822-37.682-39.865-31.488z"
          inkscape:transform-center-x="81.6544"
          inkscape:transform-center-y="158.52694"
          inkscape:connector-curvature="0"
          style="color:#000000;stroke:#000000;stroke-width:5.2191;fill:#ffcc00"
      />
    </g
    >
    <path
        id="path9186"
        style="color:#000000;stroke:#000000;stroke-width:2;fill:#ffff00"
        d="m234.35 336.91s-26.834-16.951-36.176-3.3012c-9.3418 13.65 16.616 14.862 16.616 14.862s-21.367-7.6439-23.795 8.2381c-2.4279 15.882 24.976 10.019 24.976 10.019s-35.443 9.1326-20.382 19.582 43.929-6.5788 43.929-6.5788"
        inkscape:transform-center-x="-16.74962"
        inkscape:transform-center-y="31.405538"
        inkscape:connector-curvature="0"
    />
    <path
        id="path9188"
        d="m303.64 321.17s22.571-22.315 34.625-10.988-13.039 18.081-13.039 18.081 19.229-12.051 25.008 2.9393c5.7799 14.991-22.244 15.146-22.244 15.146s36.577 1.3132 24.109 14.751c-12.467 13.438-44.317 3.0023-44.317 3.0023"
        style="color:#000000;stroke:#000000;stroke-width:2;fill:#ffff00"
        inkscape:connector-curvature="0"
    />
  </g
  >
  <metadata
    >
    <rdf:RDF
      >
      <cc:Work
        >
        <dc:format
          >image/svg+xml</dc:format
        >
        <dc:type
            rdf:resource="http://purl.org/dc/dcmitype/StillImage"
        />
        <cc:license
            rdf:resource="http://creativecommons.org/licenses/publicdomain/"
        />
        <dc:publisher
          >
          <cc:Agent
              rdf:about="http://openclipart.org/"
            >
            <dc:title
              >Openclipart</dc:title
            >
          </cc:Agent
          >
        </dc:publisher
        >
        <dc:title
          >Hen with three chicken</dc:title
        >
        <dc:date
          >2010-11-23T12:43:19</dc:date
        >
        <dc:description
        />
        <dc:source
          >https://openclipart.org/detail/97903/hen-with-three-chicken-by-salvor</dc:source
        >
        <dc:creator
          >
          <cc:Agent
            >
            <dc:title
              >salvor</dc:title
            >
          </cc:Agent
          >
        </dc:creator
        >
        <dc:subject
          >
          <rdf:Bag
            >
            <rdf:li
              >animal</rdf:li
            >
            <rdf:li
              >bird</rdf:li
            >
            <rdf:li
              >chicken</rdf:li
            >
            <rdf:li
              >farm</rdf:li
            >
            <rdf:li
              >hen</rdf:li
            >
            <rdf:li
              >poultry</rdf:li
            >
            <rdf:li
              >duplicate_clipart</rdf:li
            >
          </rdf:Bag
          >
        </dc:subject
        >
      </cc:Work
      >
      <cc:License
          rdf:about="http://creativecommons.org/licenses/publicdomain/"
        >
        <cc:permits
            rdf:resource="http://creativecommons.org/ns#Reproduction"
        />
        <cc:permits
            rdf:resource="http://creativecommons.org/ns#Distribution"
        />
        <cc:permits
            rdf:resource="http://creativecommons.org/ns#DerivativeWorks"
        />
      </cc:License
      >
    </rdf:RDF
    >
  </metadata
  >
</svg
>
